^C:\PROGRAMMINGPROJECTS\~SAMPLE CODE~\ENTRY\ENTRY.CPP
/c /ZI /nologo /W3 /WX- /Od /Oy- /D WIN32 /D _DEBUG /D _CONSOLE /D _UNICODE /D UNICODE /Gm /EHsc /RTC1 /MDd /GS /fp:precise /Zc:wchar_t /Zc:forScope /Fo"Debug\\" /Fd"Debug\vc100.pdb" /Gd /TP /analyze- /errorReport:prompt C:\PROGRAMMINGPROJECTS\~SAMPLE CODE~\ENTRY\ENTRY.CPP
^C:\PROGRAMMINGPROJECTS\~SAMPLE CODE~\ENTRY\INDEX.CPP
/c /ZI /nologo /W3 /WX- /Od /Oy- /D WIN32 /D _DEBUG /D _CONSOLE /D _UNICODE /D UNICODE /Gm /EHsc /RTC1 /MDd /GS /fp:precise /Zc:wchar_t /Zc:forScope /Fo"Debug\\" /Fd"Debug\vc100.pdb" /Gd /TP /analyze- /errorReport:prompt C:\PROGRAMMINGPROJECTS\~SAMPLE CODE~\ENTRY\INDEX.CPP
^C:\PROGRAMMINGPROJECTS\~SAMPLE CODE~\ENTRY\MAIN.CPP
/c /ZI /nologo /W3 /WX- /Od /Oy- /D WIN32 /D _DEBUG /D _CONSOLE /D _UNICODE /D UNICODE /Gm /EHsc /RTC1 /MDd /GS /fp:precise /Zc:wchar_t /Zc:forScope /Fo"Debug\\" /Fd"Debug\vc100.pdb" /Gd /TP /analyze- /errorReport:prompt C:\PROGRAMMINGPROJECTS\~SAMPLE CODE~\ENTRY\MAIN.CPP
