^C:\PROGRAMMINGPROJECTS\~SAMPLE CODE~\ENTRY\ENTRIES\ENTRIES\DEBUG\ENTRIES.EXE.EMBED.MANIFEST.RES|C:\PROGRAMMINGPROJECTS\~SAMPLE CODE~\ENTRY\ENTRIES\ENTRIES\DEBUG\ENTRY.OBJ|C:\PROGRAMMINGPROJECTS\~SAMPLE CODE~\ENTRY\ENTRIES\ENTRIES\DEBUG\INDEX.OBJ|C:\PROGRAMMINGPROJECTS\~SAMPLE CODE~\ENTRY\ENTRIES\ENTRIES\DEBUG\MAIN.OBJ
C:\PROGRAM FILES (X86)\MICROSOFT SDKS\WINDOWS\V7.0A\LIB\KERNEL32.LIB
C:\PROGRAM FILES (X86)\MICROSOFT SDKS\WINDOWS\V7.0A\LIB\USER32.LIB
C:\PROGRAM FILES (X86)\MICROSOFT SDKS\WINDOWS\V7.0A\LIB\GDI32.LIB
C:\PROGRAM FILES (X86)\MICROSOFT SDKS\WINDOWS\V7.0A\LIB\WINSPOOL.LIB
C:\PROGRAM FILES (X86)\MICROSOFT SDKS\WINDOWS\V7.0A\LIB\COMDLG32.LIB
C:\PROGRAM FILES (X86)\MICROSOFT SDKS\WINDOWS\V7.0A\LIB\ADVAPI32.LIB
C:\PROGRAM FILES (X86)\MICROSOFT SDKS\WINDOWS\V7.0A\LIB\SHELL32.LIB
C:\PROGRAM FILES (X86)\MICROSOFT SDKS\WINDOWS\V7.0A\LIB\OLE32.LIB
C:\PROGRAM FILES (X86)\MICROSOFT SDKS\WINDOWS\V7.0A\LIB\OLEAUT32.LIB
C:\PROGRAM FILES (X86)\MICROSOFT SDKS\WINDOWS\V7.0A\LIB\UUID.LIB
C:\PROGRAM FILES (X86)\MICROSOFT SDKS\WINDOWS\V7.0A\LIB\ODBC32.LIB
C:\PROGRAM FILES (X86)\MICROSOFT SDKS\WINDOWS\V7.0A\LIB\ODBCCP32.LIB
C:\PROGRAMMINGPROJECTS\~SAMPLE CODE~\ENTRY\ENTRIES\ENTRIES\DEBUG\ENTRIES.EXE.EMBED.MANIFEST.RES
C:\PROGRAMMINGPROJECTS\~SAMPLE CODE~\ENTRY\ENTRIES\ENTRIES\DEBUG\ENTRY.OBJ
C:\PROGRAMMINGPROJECTS\~SAMPLE CODE~\ENTRY\ENTRIES\ENTRIES\DEBUG\INDEX.OBJ
C:\PROGRAMMINGPROJECTS\~SAMPLE CODE~\ENTRY\ENTRIES\ENTRIES\DEBUG\MAIN.OBJ
C:\WINDOWS\SYSTEM32\TZRES.DLL
C:\PROGRAMMINGPROJECTS\~SAMPLE CODE~\ENTRY\ENTRIES\DEBUG\ENTRIES.ILK
C:\PROGRAMMINGPROJECTS\~SAMPLE CODE~\ENTRY\ENTRIES\DEBUG\ENTRIES.EXE
C:\PROGRAMMINGPROJECTS\~SAMPLE CODE~\ENTRY\ENTRIES\DEBUG\ENTRIES.PDB
C:\WINDOWS\GLOBALIZATION\SORTING\SORTDEFAULT.NLS
C:\PROGRAM FILES (X86)\MICROSOFT VISUAL STUDIO 10.0\VC\LIB\MSVCPRTD.LIB
C:\PROGRAM FILES (X86)\MICROSOFT VISUAL STUDIO 10.0\VC\LIB\MSVCRTD.LIB
C:\PROGRAM FILES (X86)\MICROSOFT VISUAL STUDIO 10.0\VC\LIB\OLDNAMES.LIB
C:\PROGRAM FILES (X86)\MICROSOFT VISUAL STUDIO 10.0\VC\BIN\LINK.EXE
C:\WINDOWS\SYSTEM32\RSAENH.DLL
C:\PROGRAM FILES (X86)\MICROSOFT VISUAL STUDIO 10.0\VC\BIN\CVTRES.EXE
